5 R and the Tidyverse | Course Notes - IDSC 4210
…
# We might want to analyze where guests come from.  But we need to JOIN this dataset with our booking data.
# We will do a left join, to keep everything in our countries dataset.
# JOIN BY country...but the country code is called "country" in the countries dataset and "country_code" in the other

country_joined <- left_join(countries, geographic_data, by = c("country" = "country_code"))

Let’s look at the country_joined dataframe, which now contains all of the booking data from the original dataframe, alone with the geopolitical information we added.

country_joined

## # A tibble: 38 x 7
## # Groups:   hotel [2]
##    hotel      country num_bookings name        distance_km continent    schengen
##    <chr>      <chr>          <int> <chr>             <dbl> <chr>        <chr>   
##  1 City Hotel AUT             1053 Austria            2038 Europe       Yes     
##  2 City Hotel BEL             1894 Belgium            1584 Europe       Yes     
##  3 City Hotel BRA             1794 Brazil             7487 South Ameri… No      
##  4 City Hotel CHE             1295 Switzerland        1565 Europe       Yes     
##  5 City Hotel CHN             1434 China              9158 Asia         No      
##  6 City Hotel DEU             6084 Germany            2397 Europe       Yes     
##  7 City Hotel ESP             4611 Spain               402 Europe       Yes     
##  8 City Hotel FRA             8804 France             1140 Europe       Yes     
##  9 City Hotel GBR             5315 Great Brit…        1812 Europe       No      
## 10 City Hotel IRL             1209 Ireland            1558 Europe       No      
## # … with 28 more rows
